{
	"info": {
		"_postman_id": "68f831b2-2065-4022-86d0-2ff231158321",
		"name": "Permohonan Cuti",
		"schema": "https://schema.getpostman.com/json/collection/v2.1.0/collection.json"
	},
	"item": [
		{
			"name": "Position",
			"item": [
				{
					"name": "Create",
					"request": {
						"method": "POST",
						"header": [],
						"body": {
							"mode": "raw",
							"raw": "{\r\n    \"positionName\": \"Staff\"\r\n}",
							"options": {
								"raw": {
									"language": "json"
								}
							}
						},
						"url": {
							"raw": "localhost:2304/api/position/create",
							"host": [
								"localhost"
							],
							"port": "2304",
							"path": [
								"api",
								"position",
								"create"
							]
						}
					},
					"response": []
				},
				{
					"name": "Read All",
					"request": {
						"method": "GET",
						"header": [],
						"url": {
							"raw": "localhost:2304/api/position/readall",
							"host": [
								"localhost"
							],
							"port": "2304",
							"path": [
								"api",
								"position",
								"readall"
							]
						}
					},
					"response": []
				},
				{
					"name": "Read Single",
					"request": {
						"method": "GET",
						"header": [],
						"url": {
							"raw": "localhost:2304/api/position/readsingle?positionid=2",
							"host": [
								"localhost"
							],
							"port": "2304",
							"path": [
								"api",
								"position",
								"readsingle"
							],
							"query": [
								{
									"key": "positionid",
									"value": "2"
								}
							]
						}
					},
					"response": []
				},
				{
					"name": "Update",
					"request": {
						"method": "PUT",
						"header": [],
						"body": {
							"mode": "raw",
							"raw": "{\r\n    \"positionName\": \"Staff\"\r\n}",
							"options": {
								"raw": {
									"language": "json"
								}
							}
						},
						"url": {
							"raw": "localhost:2304/api/position/create?positionid=2",
							"host": [
								"localhost"
							],
							"port": "2304",
							"path": [
								"api",
								"position",
								"create"
							],
							"query": [
								{
									"key": "positionid",
									"value": "2"
								}
							]
						}
					},
					"response": []
				},
				{
					"name": "Delete",
					"request": {
						"method": "DELETE",
						"header": [],
						"url": {
							"raw": "localhost:2304/api/position/delete?positionid=2",
							"host": [
								"localhost"
							],
							"port": "2304",
							"path": [
								"api",
								"position",
								"delete"
							],
							"query": [
								{
									"key": "positionid",
									"value": "2"
								}
							]
						}
					},
					"response": []
				}
			]
		},
		{
			"name": "Position Leave",
			"item": [
				{
					"name": "Create",
					"request": {
						"method": "POST",
						"header": [],
						"body": {
							"mode": "raw",
							"raw": "{\r\n    \"position\": {\r\n        \"positionId\": 3\r\n    },\r\n    \"createdAt\": \"2020-12-23\",\r\n    \"createdBy\": \"Admin\",\r\n    \"jatahCuti\": 13\r\n}",
							"options": {
								"raw": {
									"language": "json"
								}
							}
						},
						"url": {
							"raw": "localhost:2304/api/positionleave/create",
							"host": [
								"localhost"
							],
							"port": "2304",
							"path": [
								"api",
								"positionleave",
								"create"
							]
						}
					},
					"response": []
				},
				{
					"name": "Read All",
					"request": {
						"method": "GET",
						"header": [],
						"url": {
							"raw": "localhost:2304/api/positionleave/readall",
							"host": [
								"localhost"
							],
							"port": "2304",
							"path": [
								"api",
								"positionleave",
								"readall"
							]
						}
					},
					"response": []
				},
				{
					"name": "Read Single",
					"request": {
						"method": "GET",
						"header": [],
						"url": {
							"raw": "localhost:2304/api/positionleave/readsingle?positionleaveid=2",
							"host": [
								"localhost"
							],
							"port": "2304",
							"path": [
								"api",
								"positionleave",
								"readsingle"
							],
							"query": [
								{
									"key": "positionleaveid",
									"value": "2"
								}
							]
						}
					},
					"response": []
				},
				{
					"name": "Update",
					"request": {
						"method": "PUT",
						"header": [],
						"body": {
							"mode": "raw",
							"raw": "{\r\n    \"position\": {\r\n        \"positionId\": 2\r\n    },\r\n    \"createdAt\": \"2020-12-23\",\r\n    \"createdBy\": \"Admin\",\r\n    \"jatahCuti\": 15\r\n}",
							"options": {
								"raw": {
									"language": "json"
								}
							}
						},
						"url": {
							"raw": "localhost:2304/api/positionleave/update?positionleaveid=2",
							"host": [
								"localhost"
							],
							"port": "2304",
							"path": [
								"api",
								"positionleave",
								"update"
							],
							"query": [
								{
									"key": "positionleaveid",
									"value": "2"
								}
							]
						}
					},
					"response": []
				},
				{
					"name": "Delete",
					"request": {
						"method": "DELETE",
						"header": [],
						"url": {
							"raw": "localhost:2304/api/positionleave/delete?positionleaveid=2",
							"host": [
								"localhost"
							],
							"port": "2304",
							"path": [
								"api",
								"positionleave",
								"delete"
							],
							"query": [
								{
									"key": "positionleaveid",
									"value": "2"
								}
							]
						}
					},
					"response": []
				}
			]
		},
		{
			"name": "User",
			"item": [
				{
					"name": "Create",
					"request": {
						"method": "POST",
						"header": [],
						"body": {
							"mode": "raw",
							"raw": "{\r\n    \"position\": {\r\n        \"positionId\": 2\r\n    },\r\n    \"createdAt\": \"2020-12-23\",\r\n    \"createdBy\": \"Admin\",\r\n    \"userName\": \"Umar\"\r\n}",
							"options": {
								"raw": {
									"language": "json"
								}
							}
						},
						"url": {
							"raw": "localhost:2304/api/user/create",
							"host": [
								"localhost"
							],
							"port": "2304",
							"path": [
								"api",
								"user",
								"create"
							]
						}
					},
					"response": []
				},
				{
					"name": "Read All",
					"request": {
						"method": "GET",
						"header": [],
						"url": {
							"raw": "localhost:2304/api/user/readall",
							"host": [
								"localhost"
							],
							"port": "2304",
							"path": [
								"api",
								"user",
								"readall"
							]
						}
					},
					"response": []
				},
				{
					"name": "Read Single",
					"request": {
						"method": "GET",
						"header": [],
						"url": {
							"raw": "localhost:2304/api/user/readsingle?userid=2",
							"host": [
								"localhost"
							],
							"port": "2304",
							"path": [
								"api",
								"user",
								"readsingle"
							],
							"query": [
								{
									"key": "userid",
									"value": "2"
								}
							]
						}
					},
					"response": []
				},
				{
					"name": "Update",
					"request": {
						"method": "PUT",
						"header": [],
						"body": {
							"mode": "raw",
							"raw": "{\r\n    \"position\": {\r\n        \"positionId\": 2\r\n    },\r\n    \"createdAt\": \"2020-12-23\",\r\n    \"createdBy\": \"Admin\",\r\n    \"userName\": \"Umar\"\r\n}",
							"options": {
								"raw": {
									"language": "json"
								}
							}
						},
						"url": {
							"raw": "localhost:2304/api/user/update?userid=2",
							"host": [
								"localhost"
							],
							"port": "2304",
							"path": [
								"api",
								"user",
								"update"
							],
							"query": [
								{
									"key": "userid",
									"value": "2"
								}
							]
						}
					},
					"response": []
				},
				{
					"name": "Delete",
					"request": {
						"method": "DELETE",
						"header": [],
						"url": {
							"raw": "localhost:2304/api/user/delete?userid=2",
							"host": [
								"localhost"
							],
							"port": "2304",
							"path": [
								"api",
								"user",
								"delete"
							],
							"query": [
								{
									"key": "userid",
									"value": "2"
								}
							]
						}
					},
					"response": []
				}
			]
		},
		{
			"name": "Request Leave",
			"item": [
				{
					"name": "Create",
					"request": {
						"method": "POST",
						"header": [],
						"body": {
							"mode": "raw",
							"raw": "{\r\n    \"userId\": 1,\r\n    \"leaveDateFrom\": \"2020-12-24\",\r\n    \"leaveDateTo\": \"2020-12-27\",\r\n    \"description\": \"Cuti Bersama\"\r\n}",
							"options": {
								"raw": {
									"language": "json"
								}
							}
						},
						"url": {
							"raw": "localhost:2304/api/requestleave",
							"host": [
								"localhost"
							],
							"port": "2304",
							"path": [
								"api",
								"requestleave"
							]
						}
					},
					"response": []
				}
			]
		}
	]
}